// Jest Snapshot v1, https://goo.gl/fbAQLP

exports[`<Contact /> renders OK 1`] = `
.c0 .icon {
  display: inline-block;
  vertical-align: middle;
  margin-bottom: 0.125rem;
}

.c0 li {
  padding-top: 0.25rem;
  padding-bottom: 0.25rem;
}

<ul
  class="c0"
  data-testid="contact"
>
  <li>
    <a
      data-testid="contactWebsite"
      href="http://johndoe.com"
      rel="noreferrer"
      target="_blank"
    >
      <svg
        fill="none"
        height="1em"
        stroke="currentColor"
        stroke-linecap="round"
        stroke-linejoin="round"
        stroke-width="2"
        viewBox="0 0 24 24"
        width="1em"
        xmlns="http://www.w3.org/2000/svg"
      >
        <circle
          cx="12"
          cy="12"
          r="10"
        />
        <line
          x1="2"
          x2="22"
          y1="12"
          y2="12"
        />
        <path
          d="M12 2a15.3 15.3 0 0 1 4 10 15.3 15.3 0 0 1-4 10 15.3 15.3 0 0 1-4-10 15.3 15.3 0 0 1 4-10z"
        />
      </svg>
       
      johndoe.com
    </a>
  </li>
  <li>
    <a
      data-testid="contactEmail"
      href="mailto:john@gmail.com"
    >
      <svg
        fill="none"
        height="1em"
        stroke="currentColor"
        stroke-linecap="round"
        stroke-linejoin="round"
        stroke-width="2"
        viewBox="0 0 24 24"
        width="1em"
        xmlns="http://www.w3.org/2000/svg"
      >
        <path
          d="M4 4h16c1.1 0 2 .9 2 2v12c0 1.1-.9 2-2 2H4c-1.1 0-2-.9-2-2V6c0-1.1.9-2 2-2z"
        />
        <polyline
          points="22,6 12,13 2,6"
        />
      </svg>
       
      john@gmail.com
    </a>
  </li>
  <li>
    <a
      data-testid="contactTwitter"
      href="https://twitter.com/john"
      rel="noreferrer"
      target="_blank"
    >
      <svg
        fill="none"
        height="1em"
        stroke="currentColor"
        stroke-linecap="round"
        stroke-linejoin="round"
        stroke-width="2"
        viewBox="0 0 24 24"
        width="1em"
        xmlns="http://www.w3.org/2000/svg"
      >
        <path
          d="M23 3a10.9 10.9 0 0 1-3.14 1.53 4.48 4.48 0 0 0-7.86 3v1A10.66 10.66 0 0 1 3 4s-4 9 5 13a11.64 11.64 0 0 1-7 2c9 5 20 0 20-11.5a4.5 4.5 0 0 0-.08-.83A7.72 7.72 0 0 0 23 3z"
        />
      </svg>
       
      @john
    </a>
  </li>
  <li
    data-testid="contactAddress"
    id="address"
  >
    <svg
      fill="none"
      height="1em"
      stroke="currentColor"
      stroke-linecap="round"
      stroke-linejoin="round"
      stroke-width="2"
      viewBox="0 0 24 24"
      width="1em"
      xmlns="http://www.w3.org/2000/svg"
    >
      <path
        d="M21 10c0 7-9 13-9 13s-9-6-9-13a9 9 0 0 1 18 0z"
      />
      <circle
        cx="12"
        cy="10"
        r="3"
      />
    </svg>
     
    San Francisco
    , 
    California,
     
    US
  </li>
</ul>
`;
